<?xml version="1.0" encoding="UTF-8" standalone="no"?>
<svg
   xmlns:dc="http://purl.org/dc/elements/1.1/"
   xmlns:cc="http://creativecommons.org/ns#"
   xmlns:rdf="http://www.w3.org/1999/02/22-rdf-syntax-ns#"
   xmlns:svg="http://www.w3.org/2000/svg"
   xmlns="http://www.w3.org/2000/svg"
   xmlns:sodipodi="http://sodipodi.sourceforge.net/DTD/sodipodi-0.dtd"
   xmlns:inkscape="http://www.inkscape.org/namespaces/inkscape"
   version="1.1"
   id="svg2"
   width="867.43475"
   height="867.74585"
   viewBox="0 0 867.43475 867.74585"
   sodipodi:docname="close.svg"
   inkscape:version="1.0.1 (3bc2e813f5, 2020-09-07)">
  <metadata
     id="metadata8">
    <rdf:RDF>
      <cc:Work
         rdf:about="">
        <dc:format>image/svg+xml</dc:format>
        <dc:type
           rdf:resource="http://purl.org/dc/dcmitype/StillImage" />
        <dc:title></dc:title>
      </cc:Work>
    </rdf:RDF>
  </metadata>
  <defs
     id="defs6" />
  <sodipodi:namedview
     pagecolor="#ffffff"
     bordercolor="#666666"
     borderopacity="1"
     objecttolerance="10"
     gridtolerance="10"
     guidetolerance="10"
     inkscape:pageopacity="0"
     inkscape:pageshadow="2"
     inkscape:window-width="1920"
     inkscape:window-height="1020"
     id="namedview4"
     showgrid="false"
     fit-margin-top="0"
     fit-margin-left="0"
     fit-margin-right="0"
     fit-margin-bottom="0"
     inkscape:zoom="0.30460213"
     inkscape:cx="679.82301"
     inkscape:cy="788.76233"
     inkscape:window-x="0"
     inkscape:window-y="36"
     inkscape:window-maximized="1"
     inkscape:current-layer="g10" />
  <g
     inkscape:groupmode="layer"
     inkscape:label="Image"
     id="g10"
     transform="translate(-215.38507,-207.85268)">
    <g
       id="g837"
       transform="translate(9.3644376,1.8210213)">
      <path
         style="fill:#303030;fill-opacity:1"
         d="m 645.5,1073.4818 -30,0.2957 -4.5,-0.3836 -4.5,-0.3836 -15,-1.5896 -15,-1.5896 -15.77866,-2.9339 -15.77867,-2.9339 -13.25234,-3.3966 -13.25234,-3.3965 -12.969,-4.2056 L 492.5,1048.7589 480,1043.8 l -12.5,-4.9588 -17.20032,-8.327 -17.20032,-8.3269 -14.57993,-8.6927 -14.57994,-8.6927 -12.21974,-8.57029 -12.21975,-8.57028 -7,-5.56419 -7,-5.56419 -10.16302,-8.76112 -10.16302,-8.76113 -12.09233,-12.09233 -12.09233,-12.09233 -8.76113,-10.16302 -8.76112,-10.16302 -5.52792,-7 -5.52792,-7 -6.0778,-8.5 -6.07779,-8.5 -6.95132,-11 -6.95133,-11 -5.22982,-9.21188 -5.22983,-9.21189 -7.48338,-15.53412 -7.48338,-15.53413 -5.35419,-13.75399 -5.3542,-13.75399 -4.10361,-12.86027 -4.10361,-12.86028 -3.4399,-14.13972 -3.4399,-14.13973 -2.03936,-11 -2.03935,-11 -1.5037,-12 -1.50371,-12 -1.0122,-12 -1.0122,-12 V 640 619.5 l 1.0122,-12 1.0122,-12 1.50371,-12 1.5037,-12 2.03935,-11 2.03936,-11 3.4399,-14.13973 3.4399,-14.13972 4.1039,-12.86028 4.1039,-12.86027 5.49343,-14 5.49343,-14 7.7137,-16 7.7137,-16 6.33547,-10.96061 6.33547,-10.96061 6.47289,-10.03939 6.47288,-10.03939 9.75364,-13 9.75364,-13 9.48646,-11.01687 9.48646,-11.01687 13.38504,-13.36527 13.38504,-13.36527 11.95376,-10.02532 11.95377,-10.02533 11.04623,-8.20512 11.04624,-8.20511 10.03939,-6.48544 10.03939,-6.48545 10.96061,-6.33547 10.96061,-6.33547 16.14686,-7.81457 16.14686,-7.81457 13.85314,-5.39285 13.85314,-5.39285 12.86027,-4.10361 12.86028,-4.10361 14.13972,-3.4399 14.13973,-3.4399 11,-2.03936 11,-2.03935 12,-1.53035 12,-1.53035 12,-0.98004 12,-0.98004 h 20.5 20.5 l 12,0.98004 12,0.98004 12,1.53035 12,1.53035 11,2.03935 11,2.03936 14,3.40661 14,3.40662 11.5,3.61751 11.5,3.61751 14.5,5.51203 14.5,5.51203 20,9.80338 20,9.80338 13.5,8.16591 13.5,8.1659 11.5,8.10798 11.5,8.10799 7,5.55452 7,5.55453 10.16302,8.76112 10.16302,8.76113 12.09233,12.09233 12.09233,12.09233 8.76113,10.16302 8.76112,10.16302 5.56419,7 5.56419,7 8.57028,12.21975 8.57029,12.21974 8.6927,14.57994 8.6927,14.57993 8.3269,17.20032 8.327,17.20032 4.9588,12.5 4.9589,12.5 4.2057,12.96899 4.2056,12.969 3.3965,13.25234 3.3966,13.25234 2.9303,15.77867 2.9303,15.77866 1.8157,15 1.8158,15 v 33.5 33.5 l -1.8158,15 -1.8157,15 -2.9303,15.77866 -2.9303,15.77867 -3.3917,13.22133 -3.3916,13.22134 -3.6811,11.5 -3.6811,11.5 -5.8969,15.01442 -5.8969,15.01443 -8.0681,16.4371 -8.0681,16.4371 -8.543,14.32873 -8.5429,14.32873 -8.57403,12.21974 -8.57403,12.21975 -9.2393,11.5 -9.23931,11.5 -10.96922,11.86839 -10.96922,11.8684 -11.8684,10.97373 -11.86839,10.97374 -11.5,9.25016 -11.5,9.25016 -12.21975,8.55866 -12.21974,8.55866 -14.32873,8.5429 -14.32873,8.543 -16.4371,8.0681 -16.4371,8.0681 -15.01443,5.9041 -15.01442,5.9041 -12.91137,4.0947 -12.91136,4.0948 -14.08864,3.4477 -14.08863,3.4477 -14,2.5097 -14,2.5096 -13.5,1.6249 -13.5,1.6248 z m -8.5,-38.6508 5.5,0.1306 17.70765,-0.982 17.70765,-0.9819 11.79235,-1.5227 11.79235,-1.5227 13.48037,-2.5496 13.48036,-2.5496 13.01964,-3.3744 13.01963,-3.3744 13.5,-4.6287 13.5,-4.6288 13,-5.4996 13,-5.49967 15,-7.75518 15,-7.75519 14.11391,-9.01496 14.1139,-9.01496 10.3861,-7.80235 10.38609,-7.80235 8.5,-7.04588 8.5,-7.04587 15.58706,-15.5554 15.58707,-15.55539 8.91293,-10.82283 8.91294,-10.82283 8.61934,-12.04558 8.61933,-12.04558 7.05702,-11.63159 7.05701,-11.63159 6.54789,-12.54631 6.54789,-12.54632 5.98792,-14.17478 5.988,-14.17478 5.0642,-15.02402 5.0642,-15.02403 3.9256,-16.25488 3.9256,-16.25488 1.9898,-12 1.9897,-12 1.1153,-9.66561 1.1153,-9.6656 0.7995,-17.5844 0.7995,-17.58439 -0.7995,-17.58439 -0.7995,-17.5844 -1.1153,-9.6656 -1.1153,-9.66561 -1.9897,-12 -1.9898,-12 -3.9256,-16.25488 -3.9256,-16.25488 -5.0383,-14.94716 -5.0383,-14.94717 -5.5846,-13.26452 -5.58458,-13.26453 -3.51082,-7.03343 -3.51081,-7.03343 -7.06454,-13 -7.06454,-13 L 965.26013,415.09793 953.86395,397.69587 943.52821,384.09793 933.19247,370.5 922.86796,358.5 912.54345,346.5 899.02173,332.62082 885.5,318.74164 873,308.27646 l -12.5,-10.46518 -11.0094,-7.81402 -11.0094,-7.81403 -11.76959,-7.0978 -11.76958,-7.0978 -10.80604,-5.41943 -10.80603,-5.41942 -10.91498,-4.66698 -10.91498,-4.66698 -14.32206,-4.88644 -14.32205,-4.88645 -15.67795,-3.92965 -15.67794,-3.92965 -12.5,-2.09989 -12.5,-2.09989 -14,-1.41371 -14,-1.4137 -15.5,-0.64908 -15.5,-0.64909 -17.5,1.09412 -17.5,1.09412 -8.5,1.04046 -8.5,1.04046 -14.5,2.49794 -14.5,2.49795 -11.69397,2.93946 -11.69397,2.93946 -11.80603,3.57287 -11.80603,3.57287 -16.5,6.5306 -16.5,6.53061 -16,7.98335 -16,7.98335 -14.11246,8.52405 -14.11247,8.52404 -12.55099,9.13851 -12.55099,9.13851 -10.83655,8.93417 -10.83654,8.93418 -16.56583,16.56582 -16.56582,16.56583 -8.93418,10.83654 -8.93417,10.83655 -9.22953,12.66345 -9.22954,12.66346 -8.95463,15 -8.95463,15 -7.06376,14.19762 -7.06376,14.19763 -4.46898,10.91134 -4.46898,10.91134 -3.60281,9.89103 -3.60281,9.89104 -4.43149,15.94336 -4.4315,15.94336 -2.92778,15.05664 -2.92778,15.05664 -1.57225,12.5 -1.57225,12.5 -1.07225,17.5 -1.07225,17.5 0.61711,13.5 0.61712,13.5 0.99553,12 0.99554,12 2.55811,16 2.55811,16 3.9237,15.67794 3.92369,15.67795 4.88645,14.32205 4.88644,14.32206 4.69273,11 4.69272,11 5.86573,11.5 5.86573,11.5 6.62017,11 6.62017,11 7.09139,10 7.09139,10 8.50521,10.5 8.50522,10.5 17.06736,17.07438 17.06736,17.07438 13.10918,11.02026 13.10918,11.02027 13.39082,10.02904 13.39082,10.02904 15,9.94528 15,9.94528 12,6.55946 12,6.55946 10.06041,5.03555 10.0604,5.03555 12.16462,5.08245 12.16461,5.0824 12.98855,4.4489 12.98856,4.4489 11.28643,3.0236 11.28642,3.0237 15,2.9521 15,2.9522 13,1.6611 13,1.661 14,0.7681 14,0.768 z m -3,-38.97132 -18.5,-0.13221 -8.5,-0.78699 -8.5,-0.78698 -9,-1.13245 -9,-1.13245 -10.5,-2.00811 -10.5,-2.00811 -13,-3.36987 -13,-3.36987 -12.5,-4.45634 -12.5,-4.45633 -10.92453,-4.68845 -10.92454,-4.68846 -9.89638,-4.96623 -9.89637,-4.96624 -11.67909,-7.11984 -11.67909,-7.11985 -9.67867,-6.82996 -9.67867,-6.82995 -11.09306,-9.0591 -11.09306,-9.0591 -14.30091,-14.1964 -14.3009,-14.19639 -9.18385,-11.32255 -9.18385,-11.32254 -6.99076,-9.79155 -6.99077,-9.79155 -8.05057,-13.3859 -8.05058,-13.38591 -6.46524,-13.2627 -6.46524,-13.26269 -4.07824,-10.23659 -4.07825,-10.2366 -3.821,-11.51233 -3.82101,-11.51234 -3.54619,-14.48837 -3.54619,-14.48838 -1.99726,-12 -1.99726,-12 -1.24301,-11 -1.24301,-11 -0.0336,-25 -0.0336,-25 1.27662,-11 1.27662,-11 1.99726,-12 1.99726,-12 3.47904,-14.21599 3.47904,-14.216 5.57641,-16.2322 5.5764,-16.23221 4.45296,-10.0518 4.45296,-10.0518 7.29851,-14 7.29851,-14 5.3631,-8.5 5.36311,-8.5 7.46113,-10.5 7.46113,-10.5 4.0268,-5 4.02679,-5 8.05036,-9 8.05035,-9 6.58386,-6.5 6.58386,-6.5 6.19762,-5.72618 6.19762,-5.72618 9.71872,-7.83364 9.71873,-7.83364 10,-7.06752 10,-7.06753 12.9115,-7.74623 12.91151,-7.74623 8.08849,-3.85538 8.0885,-3.85538 6.47839,-1.63737 6.47839,-1.63738 5.14401,0.53091 5.144,0.5309 3.97229,2.02651 3.97228,2.02651 3.04464,3.46766 3.04464,3.46765 1.57562,4.84126 1.57562,4.84126 0.78506,8 0.78506,8 -0.59017,26.5 -0.59017,26.5 -1.71843,5.85549 -1.71843,5.85549 -4.24027,4.64451 -4.24027,4.64451 -5.3193,6.5 -5.31931,6.5 -8.68614,6.5 -8.68614,6.5 -7.44569,6.11534 -7.44568,6.11535 -10.07129,10.46308 -10.07129,10.46308 -6.42871,8.68794 -6.42871,8.68793 -4.20715,6.73364 -4.20715,6.73364 -6.98405,14 -6.98406,14 -5.06191,15.29395 -5.06191,15.29395 -2.45268,12.20605 -2.45267,12.20605 -1.00114,8.13026 -1.00114,8.13026 -0.66865,12.86974 -0.66866,12.86974 1.20421,14.48508 1.20422,14.48508 1.86015,10.01492 1.86016,10.01492 2.1289,8.87713 2.12891,8.87713 4.01407,11.62287 4.01407,11.62287 6.9157,14.14662 6.91571,14.14662 8.31978,12.45834 8.31979,12.45834 6.42916,7.89504 6.42916,7.89504 9.50359,9.54274 9.50359,9.54274 7.5,6.04844 7.5,6.04844 7.42611,5.28191 7.42611,5.2819 11.87646,6.80418 11.87646,6.80419 11.86698,5.01177 11.86697,5.01177 11.21381,3.55089 11.21381,3.5509 12.61664,2.45534 12.61665,2.45535 13.5,1.19546 13.5,1.19546 16,-0.6357 16,-0.6357 9.89256,-1.52753 9.89256,-1.52753 8.85672,-1.93301 8.85672,-1.93301 13.94249,-4.63953 13.9425,-4.63953 12.80822,-6.23872 12.80823,-6.23872 9.30939,-5.76355 9.30938,-5.76355 9.806,-7.29786 9.806,-7.29787 10.27245,-9.85484 10.27245,-9.85483 7.95756,-9.5 7.95756,-9.5 7.93843,-11.84556 7.93844,-11.84556 7.28954,-14.71746 7.28954,-14.71746 4.72113,-14.1877 4.72113,-14.1877 1.93301,-8.85672 1.93301,-8.85672 1.53911,-9.89256 1.53912,-9.89256 0.62307,-15.5 0.62307,-15.5 -1.18237,-13.3121 -1.18237,-13.3121 -1.95148,-10.83764 -1.95149,-10.83763 -3.50043,-12.16144 -3.50043,-12.16144 -5.06497,-12.31869 -5.06498,-12.31868 -6.79829,-12.02325 -6.7983,-12.02324 -6.5707,-9.3469 -6.5707,-9.34689 -7.85299,-9.11055 -7.85299,-9.11055 -9.96845,-9.27081 -9.96845,-9.27081 -13.11555,-9.81244 -13.11554,-9.81245 -4.12145,-4.68221 -4.12144,-4.6822 -2.38609,-5.12399 -2.38609,-5.12399 -1.37692,-5.5 -1.37692,-5.5 V 372 337.5 l 1.7306,-5.58717 1.7306,-5.58717 4.20612,-4.7784 4.20612,-4.77841 4.39619,-1.88442 L 771.16583,313 h 5.99078 5.99078 l 7.67631,2.57276 7.67632,2.57276 7.5,4.11054 7.5,4.11055 13.67803,8.704 13.67802,8.704 11.74722,8.8627 11.74722,8.86269 12.08187,10.60182 12.08188,10.60182 11.56369,12.39818 11.5637,12.39818 6.48463,8.04096 6.48463,8.04096 7.10852,9.95904 7.10852,9.95904 6.62017,11 6.62017,11 5.86573,11.5 5.86573,11.5 4.46921,10.5 4.46922,10.5 4.54041,13.06501 4.54042,13.06502 3.57061,14.20731 3.57062,14.20732 2.08931,12.22767 2.08931,12.22767 1.41006,14.5 1.41007,14.5 0.0205,17.58939 0.0205,17.58938 -1.48006,15.41062 -1.48005,15.41061 -2.58644,13.98122 -2.58644,13.98123 -2.03075,7.51877 -2.03075,7.51878 -2.90102,9.87421 -2.90102,9.8742 -2.44699,6.78361 -2.44698,6.78362 -4.63794,11.34218 -4.63794,11.34218 -7.82852,15.0963 -7.82853,15.09629 -5.81867,9.40371 -5.81867,9.4037 -7.42232,10.5 -7.42232,10.5 -8.53878,10.5 -8.53878,10.5 -16.05851,16.04986 -16.05852,16.04986 -12,9.55769 -12,9.55769 -12.5,8.50401 -12.5,8.50401 -11,6.31924 -11,6.31924 -14,6.73037 -14,6.73036 -14,5.2143 -14,5.21429 -8,2.41671 -8,2.4167 -11.65513,2.97584 -11.65514,2.97585 -10.84486,1.99917 -10.84487,1.99917 -16,1.47876 -16,1.47876 -18.5,-0.1322 z m 1.5,-340.93211 -4,-0.0377 -7.3387,-1.9223 -7.3387,-1.9223 -5.6613,-3.1976 -5.6613,-3.19761 -7,-7.07503 -7,-7.07504 -3.25225,-6.5 -3.25224,-6.5 -2.24776,-8.5 -2.24775,-8.5 v -132 -132 l 2.30316,-7.95493 2.30316,-7.95494 3.56451,-6.78327 3.56451,-6.78326 5.2097,-5.42203 5.2097,-5.42203 6.09505,-3.93943 6.09506,-3.93942 7.32757,-2.37933 7.32758,-2.37932 10,0.03 10,0.03 5.94772,1.78439 5.94772,1.78439 6.05228,3.05383 6.05228,3.05383 7.10895,7.11076 7.10895,7.11075 2.74848,5.42875 2.74847,5.42875 1.45175,4.07125 1.45175,4.07125 1.05562,5 1.05563,5 -0.20097,130.33105 -0.20097,130.33105 -1.97714,7.16895 -1.97714,7.16895 -2.56919,4.5 -2.56918,4.5 -5.32612,7.1634 -5.32612,7.16341 -8.29138,6.45439 -8.29139,6.45438 -4.35602,2.20662 -4.35602,2.20662 -6.64398,1.40823 -6.64398,1.40822 -4,-0.0377 z"
         id="path851" />
      <path
         style="fill:#cb0000;fill-opacity:1"
         d="m 645,981.4692 -24.5,0.30309 -5,-0.39263 -5,-0.39263 -12.5,-1.5307 -12.5,-1.5307 -14.66137,-2.98103 -14.66138,-2.98104 -13.804,-4.03653 -13.80401,-4.03652 -10.53462,-4.07446 L 507.5,955.74158 492.37517,948.50279 477.25034,941.264 467.37517,935.49015 457.5,929.7163 446.71764,922.35334 435.93527,914.99038 428.21764,908.91984 420.5,902.8493 408.8156,892.35905 397.13121,881.86879 386.3156,869.85949 375.5,857.85019 366.69584,846.1751 357.89167,834.5 l -7.62013,-11.97657 -7.62012,-11.97657 -6.27393,-12.02343 -6.27393,-12.02343 -5.12269,-11.94261 -5.12268,-11.94262 -4.43434,-12.94597 -4.43434,-12.94598 -3.45506,-14.11141 -3.45506,-14.11141 -1.96114,-11.5 -1.96114,-11.5 -1.25198,-12 -1.25198,-12 -0.005,-22.5 -0.005,-22.5 1.73986,-14.5 1.73985,-14.5 2.00366,-10.5 2.00366,-10.5 2.50889,-10 2.50889,-10 4.03244,-12.5 4.03245,-12.5 4.31698,-10.61101 4.31698,-10.611 6.97921,-13.889 6.97921,-13.88899 6.69269,-11 6.6927,-11 7.64766,-10.5 7.64766,-10.5 7.46478,-9 7.46477,-9 10.04196,-10.3689 10.04197,-10.36889 10.41761,-9.01169 10.41762,-9.01169 11.37856,-8.46161 11.37857,-8.46161 11.20382,-6.9584 11.20382,-6.95841 12.51631,-6.36691 12.51631,-6.36691 7.88392,-3.13183 7.88393,-3.13183 1.34976,0.51796 1.34977,0.51795 -0.0136,45.78139 -0.0137,45.78138 -0.5811,2.16635 -0.5811,2.16635 -6.15525,3.74037 -6.15524,3.74037 -7,5.05587 -7,5.05587 -7.13816,5.76026 -7.13817,5.76026 -8.12827,7.6465 -8.12828,7.6465 -7.80422,9.13065 -7.80421,9.13065 -5.4482,7.5 -5.44819,7.5 -4.14123,6.5 -4.14124,6.5 -4.35553,8 -4.35552,8 -4.15421,9 -4.15421,9 -4.44248,13 -4.44248,13 -2.59324,11 -2.59324,11 -1.79229,11.5 -1.79229,11.5 0.0193,24.5 0.0193,24.5 1.75436,11.5 1.75435,11.5 3.03633,12.31909 3.03632,12.3191 3.99071,11.6809 3.99072,11.68091 7.86112,16 7.86112,16 6.89828,10.5 6.89829,10.5 8.14756,10.11228 8.14757,10.11228 10.17788,10.17788 10.17788,10.17788 10.11228,8.14757 10.11228,8.14756 10.5,6.85655 10.5,6.85654 12.5,6.36452 12.5,6.36453 10.23619,4.0777 10.23619,4.07769 10.00287,2.97163 10.00288,2.97163 12.76094,2.50238 12.76093,2.50239 9.5,1.09544 9.5,1.09544 18.5,0.004 18.5,0.004 9,-1.09698 9,-1.09698 6.5,-1.05686 6.5,-1.05686 11.5,-2.8419 11.5,-2.8419 12,-4.12047 12,-4.12047 15,-7.33555 15,-7.33554 13.5,-9.00018 13.5,-9.00019 9.5,-7.98422 9.5,-7.98422 9.54872,-9.87393 9.54873,-9.87393 6.37588,-8 6.37589,-8 7.91671,-12 7.91671,-12 7.35256,-15 7.35256,-15 4.12047,-12 4.12047,-12 2.86079,-11.5 2.8608,-11.5 1.65047,-10.5 1.65047,-10.5 0.68962,-14 0.68963,-14 -0.67189,-14.19558 -0.67188,-14.19557 -1.68397,-10.80443 -1.68396,-10.80442 -2.36224,-10 -2.36224,-10 -3.518,-10.59328 -3.518,-10.59328 -3.58792,-8.40672 -3.58792,-8.40672 -5.91103,-11.27524 -5.91103,-11.27525 -6.67275,-10.1199 -6.67274,-10.1199 -6.49548,-8.10485 L 831.72394,473.5 821.11197,462.64512 810.5,451.79024 l -8.57524,-7.14512 -8.57524,-7.14512 -6.92476,-4.79721 -6.92476,-4.7972 -6.5,-4.2028 -6.5,-4.20279 -0.25971,-47.77766 -0.25972,-47.77765 1.35766,-0.52099 1.35766,-0.52098 6.84514,2.5765 6.84515,2.57651 15.22833,7.84543 15.22834,7.84544 14.62613,9.68199 14.62612,9.68199 12.70245,10.18229 12.70245,10.18229 14.01242,14.01242 14.01242,14.01242 10.24328,12.77834 10.24327,12.77834 10.0549,15.22166 10.0549,15.22166 9.24376,18.5 9.24377,18.5 5.11008,13.5 5.11008,13.5 3.63548,12.5 3.63547,12.5 2.91866,14.5 2.91866,14.5 1.73094,13 1.73094,13 v 28.5 28.5 l -1.72787,13 -1.72786,13 -2.95794,14.5 -2.95794,14.5 -2.58694,9 -2.58694,9 -4.54808,13 -4.54808,13 -6.39559,14 -6.3956,14 -6.15061,11 -6.15061,11 -5.94132,9 -5.94131,9 -3.60428,5 -3.60428,5 -7.96679,10 -7.96678,10 -16.0701,16.07011 -16.07011,16.0701 -10,7.96678 -10,7.96679 -5,3.60428 -5,3.60428 -9,5.91911 -9,5.9191 -9.21219,5.24324 -9.21218,5.24324 -12.56261,5.96441 -12.5626,5.96441 -6.72521,2.57682 -6.72521,2.57682 -11,3.80688 -11,3.80688 -9.5,2.56415 -9.5,2.56415 -12.5,2.49947 -12.5,2.49948 -12.5,1.6178 -12.5,1.61781 z m -4,-340.82405 -9.5,0.33157 -4,-1.32361 -4,-1.32361 -4.34941,-2.23579 -4.34942,-2.23579 -4.5088,-4.15607 -4.5088,-4.15607 -2.82487,-4.10581 -2.82488,-4.10582 -2.31691,-6.41707 L 595.5,604.5 v -135 -135 l 2.28714,-6.32871 2.28714,-6.32871 2.33123,-3.67129 2.33123,-3.67129 5.38163,-5.06345 5.38163,-5.06345 5.59526,-2.64264 5.59525,-2.64264 6.663,-1.06442 6.663,-1.06442 5.74174,0.94948 5.74175,0.94948 4.26098,1.53055 4.26099,1.53054 4.26191,2.93227 4.2619,2.93227 4.04707,4.39055 4.04706,4.39055 2.6711,5.46766 2.6711,5.46767 1.02674,5.57208 1.02673,5.57209 -0.26779,133.92791 L 683.5,606.5 l -2.19148,5.79883 -2.19147,5.79883 -3.36902,4.69026 -3.36902,4.69026 -5.09583,4.15402 -5.09584,4.15401 -5.84367,2.26368 -5.84367,2.26369 z"
         id="path845" />
      <path
         style="fill:#5a100e;fill-opacity:1"
         d="m 645,981.4692 -24.5,0.30309 -5,-0.39263 -5,-0.39263 -12.5,-1.5307 -12.5,-1.5307 -14.66137,-2.98103 -14.66138,-2.98104 -13.804,-4.03653 -13.80401,-4.03652 -10.53462,-4.07446 -10.53462,-4.07447 -15.12483,-7.23879 -15.12483,-7.23879 -9.87517,-5.77385 -9.87517,-5.77385 -10.78236,-7.36296 -10.78237,-7.36296 -7.71763,-6.0847 -7.71764,-6.0847 -11.67611,-10.56379 -11.67612,-10.56379 -10.14795,-11.2415 -10.14794,-11.24149 -7.98397,-10.25661 -7.98397,-10.2566 -7.2594,-11.0986 -7.25939,-11.0986 -5.20159,-9.15189 -5.20158,-9.1519 -5.94018,-12.56809 -5.94018,-12.56809 -4.95718,-13.28002 -4.95718,-13.28001 -3.01742,-10.5 -3.01742,-10.5 -2.03848,-9 -2.03848,-9 -1.49323,-8.5 -1.49323,-8.5 -1.05868,-8.07841 -1.05868,-8.07841 -0.91942,-17.75545 -0.91941,-17.75544 0.91984,-16.90869 0.91985,-16.90868 2.06939,-14.25746 2.06939,-14.25746 3.04076,-13.5 3.04077,-13.5 5.83619,-17.5 5.83619,-17.5 4.62277,-10.5 4.62277,-10.5 7.05154,-13.5 7.05154,-13.5 10.30099,-15.5 10.301,-15.5 8.81607,-11 8.81607,-11 15.53603,-15.53603 15.53603,-15.53603 11,-8.81589 11,-8.81589 16,-10.65331 16,-10.65331 14,-7.1634 14,-7.1634 7.90023,-3.13071 7.90024,-3.13071 1.34976,0.51796 1.34977,0.51795 -0.0136,45.78139 -0.0137,45.78138 -0.5811,2.16635 -0.5811,2.16635 -6.15525,3.74037 -6.15524,3.74037 -7,5.05587 -7,5.05587 -7.13816,5.76026 -7.13817,5.76026 -8.12827,7.6465 -8.12828,7.6465 -7.80422,9.13065 -7.80421,9.13065 -5.4482,7.5 -5.44819,7.5 -4.14123,6.5 -4.14124,6.5 -4.35553,8 -4.35552,8 -4.15421,9 -4.15421,9 -4.44248,13 -4.44248,13 -2.59324,11 -2.59324,11 -1.79229,11.5 -1.79229,11.5 0.0193,24.5 0.0193,24.5 1.75436,11.5 1.75435,11.5 3.03633,12.31909 3.03632,12.3191 4.00953,11.6809 4.00954,11.68091 6.75375,14 6.75375,14 5.77186,9.30939 5.77186,9.30938 7.24447,9.69062 7.24447,9.69061 8.52599,9.5 8.52599,9.5 9.72163,8.5 9.72162,8.5 8.99719,6.71421 8.99718,6.71421 11.98479,7.16601 11.98479,7.16601 12.17864,5.50918 12.17864,5.50918 14.5,4.77381 14.5,4.7738 12.5,2.50607 12.5,2.50608 10,1.27875 10,1.27876 19.5,-0.009 19.5,-0.009 9.5,-1.24287 9.5,-1.24288 10.5,-2.05095 10.5,-2.05095 11.5,-3.30233 11.5,-3.30233 10.5,-4.18454 10.5,-4.18455 12.5,-6.36015 12.5,-6.36014 11.15696,-7.40839 11.15697,-7.40839 7.84303,-6.33303 7.84304,-6.33302 10.35942,-10.05724 10.35942,-10.05723 8.46422,-10.24264 8.46422,-10.24265 7.47501,-11.25735 7.47501,-11.25736 6.47464,-12.72433 6.47463,-12.72433 4.49829,-11.50436 4.49829,-11.50436 3.39837,-12.39969 3.39838,-12.3997 2.08312,-12.26503 2.08313,-12.26504 1.11817,-14.5163 1.11818,-14.5163 -1.1596,-16.73534 -1.15959,-16.73534 -1.87148,-10.85494 -1.87147,-10.85494 -2.66167,-10.46325 -2.66167,-10.46325 -4.51534,-12.53675 -4.51534,-12.53675 -6.8915,-13.84512 -6.89149,-13.84511 -7.34095,-11.15489 -7.34094,-11.15488 -8.07344,-10 -8.07344,-10 -9.35729,-9.41587 -9.35729,-9.41588 -8.57524,-7.08412 -8.57524,-7.08413 -6.92476,-4.79721 -6.92476,-4.7972 -6.5,-4.2028 -6.5,-4.20279 -0.25971,-47.77766 -0.25972,-47.77765 1.35766,-0.52099 1.35766,-0.52098 6.84514,2.5765 6.84515,2.57651 15.05691,7.76176 15.05691,7.76176 13,8.56173 13,8.56174 9.63534,7.39864 9.63534,7.39864 11.25993,10 11.25992,10 10.0248,11 10.02479,11 7.57994,9.48647 7.57994,9.48647 10.32111,15.51353 10.32112,15.51353 9.23324,18.5 9.23325,18.5 5.11008,13.5 5.11008,13.5 3.63548,12.5 3.63547,12.5 2.91866,14.5 2.91866,14.5 1.73094,13 1.73094,13 v 28.5 28.5 l -1.72787,13 -1.72786,13 -2.95794,14.5 -2.95794,14.5 -2.58694,9 -2.58694,9 -4.54808,13 -4.54808,13 -6.39559,14 -6.3956,14 -6.15061,11 -6.15061,11 -5.94132,9 -5.94131,9 -3.60428,5 -3.60428,5 -7.96679,10 -7.96678,10 -16.0701,16.07011 -16.07011,16.0701 -10,7.96678 -10,7.96679 -5,3.60428 -5,3.60428 -9,5.91911 -9,5.9191 -9.21219,5.24324 -9.21218,5.24324 -12.56261,5.96441 -12.5626,5.96441 -6.72521,2.57682 -6.72521,2.57682 -11,3.80688 -11,3.80688 -9.5,2.56415 -9.5,2.56415 -12.5,2.49947 -12.5,2.49948 -12.5,1.6178 -12.5,1.61781 -24.5,0.30309 z m -8,-2.63542 2.5,0.12784 18,-0.99628 18,-0.99629 14,-2.03473 14,-2.03472 11,-2.50063 11,-2.50064 11.7889,-3.46754 11.78889,-3.46754 10.46036,-3.97776 10.46035,-3.97776 10.79308,-4.86972 10.79308,-4.86972 12.61451,-7.06091 12.6145,-7.0609 10.10081,-6.63901 10.1008,-6.63901 10.09756,-7.86017 10.09757,-7.86017 11.28323,-10.18562 11.28323,-10.18563 10.18563,-11.28323 10.18562,-11.28323 7.86017,-10.09757 7.86017,-10.09756 6.63901,-10.1008 6.63901,-10.10081 7.0609,-12.6145 7.06091,-12.61451 4.86972,-10.79308 4.86972,-10.79308 3.97776,-10.46035 3.97776,-10.46036 3.46754,-11.78889 3.46754,-11.7889 2.50064,-11 2.50063,-11 2.03411,-14 2.0341,-14 0.98384,-18.06935 0.98384,-18.06935 -0.9606,-16.78682 -0.96059,-16.78682 -2.05836,-14.14383 -2.05835,-14.14383 -2.41509,-10.73506 -2.41508,-10.73506 -3.13005,-10.76494 -3.13004,-10.76494 -3.99408,-10.87096 -3.99407,-10.87096 -5.29894,-11.71335 -5.29894,-11.71334 -7.22281,-12.9157 -7.22282,-12.91569 -8.50031,-12.46141 -8.50032,-12.46141 -7.63752,-9.53635 -7.63752,-9.53635 -12,-12.41015 -12,-12.41015 -10.98314,-9.42569 -10.98315,-9.42568 -7.21319,-4.82448 -7.21318,-4.82447 -5.57635,-2.08638 -5.57635,-2.08638 -6.93065,-1.07533 -6.93064,-1.07532 -6.02496,1.54352 -6.02495,1.54352 -3.86002,2.43672 -3.86003,2.43673 -3.06733,4.83953 -3.06733,4.83953 -1.66186,4.98376 -1.66187,4.98375 0.0411,8.66723 0.0411,8.66723 1.06934,4.77163 1.06935,4.77163 3.01837,7.25046 3.01838,7.25047 12.18871,10.44429 12.1887,10.44428 11.07007,11.44065 11.07008,11.44065 7.3291,9.44199 7.32909,9.44198 6.52337,10 6.52337,10 6.15044,12 6.15045,12 5.09196,13 5.09197,13 3.52241,13 3.52241,13 1.09757,6 1.09757,6 2.46437,17.5 2.46437,17.5 -0.0166,15 -0.0166,15 -0.98661,9.5 -0.98661,9.5 -1.52844,9 -1.52844,9 -2.90665,11.5 -2.90665,11.5 -3.16466,9 -3.16465,9 -5.21079,11.55631 -5.21079,11.55631 -7.09004,11.94369 -7.09005,11.94369 -7.43334,10 -7.43334,10 -8.19225,9.21988 -8.19226,9.21989 -9.21989,8.19226 -9.21988,8.19225 -10,7.43334 -10,7.43334 -11.64881,6.91555 -11.64881,6.91555 -9.46445,4.39275 -9.46444,4.39275 -10.88675,4.00018 -10.88674,4.00018 -14.5,3.58962 -14.5,3.58962 -10,1.56409 -10,1.5641 -21,0.55178 -21,0.55177 -18.5,-2.66304 -18.5,-2.66304 -9.5,-2.04758 -9.5,-2.04758 -11,-3.33203 -11,-3.33202 -11.5,-4.62139 -11.5,-4.62139 -11.40445,-5.98308 -11.40445,-5.98308 -8.59555,-5.59721 L 493.5,852.73025 484.04064,845.61513 474.58127,838.5 461.6545,826 448.72774,813.5 440.30569,803 l -8.42204,-10.5 -6.69183,-9.9971 -6.69182,-9.99711 -8.57333,-17.05797 -8.57334,-17.05797 -5.10508,-15.44492 -5.10508,-15.44493 -2.5372,-11.5 -2.5372,-11.5 -1.60038,-13 -1.60037,-13 -0.0143,-17.5 -0.0143,-17.5 1.1322,-10.5 1.1322,-10.5 2.41016,-12 2.41015,-12 3.02082,-10.51267 3.02082,-10.51267 4.07692,-10.48733 4.07692,-10.48733 5.77288,-11.5 5.77288,-11.5 5.29634,-8.5 5.29633,-8.5 5.0866,-7 5.08659,-7 7.15328,-8.5 7.15327,-8.5 11.89573,-11.5 11.89573,-11.5 9.98535,-7.59513 9.98536,-7.59514 7.27133,-4.81576 7.27133,-4.81577 0.63269,-2.52084 0.63269,-2.52084 -0.64122,-22.0543 -0.64122,-22.05431 -2.2628,-1.75661 -2.2628,-1.75661 -4.36301,-2.15126 -4.363,-2.15125 -8.137,0.0429 -8.13699,0.0429 -6.39901,2.16181 -6.39901,2.1618 -6.10099,3.06858 -6.10099,3.06857 -8.82806,6.03335 -8.82806,6.03335 -12.17194,10.64685 -12.17194,10.64685 -10.39412,11.16397 -10.39413,11.16396 -8.97906,11.27644 -8.97906,11.27643 -8.30042,12.5 -8.30042,12.5 -6.57366,12 -6.57366,12 -5.39646,12 -5.39645,12 -4.63911,12.82454 -4.63911,12.82454 -3.93252,15.17546 -3.93252,15.17546 -2.03937,11.5 -2.03937,11.5 -1.48457,14 -1.48458,14 v 20.5 20.5 l 1.48458,14 1.48457,14 2.05551,11.5 2.05551,11.5 2.981,11.81742 2.981,11.81743 3.84934,11.68257 3.84935,11.68258 4.16959,10.5 4.16959,10.5 6.56686,12.5 6.56686,12.5 9.22202,14 9.22203,14 8.34725,10.5 8.34725,10.5 16.06314,16.08048 16.06314,16.08048 11,8.79274 11,8.79274 14,9.27204 14,9.27205 12,6.46253 12,6.46253 8,3.56766 8,3.56767 10.29822,4.08574 10.29822,4.08575 11.70178,3.55523 11.70178,3.55523 12.5,2.88525 12.5,2.88526 14.38406,2.09055 14.38407,2.09056 14.11593,0.81072 14.11594,0.81072 2.5,0.12785 z m 4,-338.18863 -9.5,0.33157 -4,-1.32361 -4,-1.32361 -4.34941,-2.23579 -4.34942,-2.23579 -4.5088,-4.15607 -4.5088,-4.15607 -2.82487,-4.10581 -2.82488,-4.10582 -1.9827,-5.91707 -1.98271,-5.91708 -0.24608,-135.5 -0.24608,-135.5 2.19902,-6.32871 2.19901,-6.32871 2.33123,-3.67129 2.33123,-3.67129 5.38163,-5.06345 5.38163,-5.06345 5.59526,-2.64264 5.59525,-2.64264 6.663,-1.06442 6.663,-1.06442 5.74174,0.94948 5.74175,0.94948 4.26098,1.53055 4.26099,1.53054 4.26191,2.93227 4.2619,2.93227 4.04707,4.39055 4.04706,4.39055 2.6711,5.46766 2.6711,5.46767 1.02674,5.57208 1.02673,5.57209 -0.26779,133.92791 L 683.5,606.5 l -2.19148,5.79883 -2.19147,5.79883 -3.36902,4.69026 -3.36902,4.69026 -5.09583,4.15402 -5.09584,4.15401 -5.84367,2.26368 -5.84367,2.26369 z m 3.5,-4.93949 8,-0.36126 5.61179,-2.67943 5.61178,-2.67944 5.19233,-5.49012 5.19233,-5.49012 2.63527,-5.75265 2.63527,-5.75264 0.89541,-19 0.89541,-19 -0.51903,-113 -0.51903,-113 -1.00314,-4 -1.00315,-4 -3.81262,-3.37981 L 670.5,328.74037 665,326.12019 659.5,323.5 h -9.5 -9.5 l -5.80931,2.72183 -5.80931,2.72183 -5.28851,5.50405 -5.2885,5.50404 -3.02996,5.77413 -3.02996,5.77412 -1.64212,5.06794 -1.64212,5.06794 -1.56514,7.93206 -1.56514,7.93206 -0.81052,86 -0.81053,86 0.88607,17.5 0.88606,17.5 1.904,9 1.90399,9 2.17194,5.73554 2.17194,5.73554 3.94066,5.90119 3.94066,5.90118 3.70478,2.86328 3.70479,2.86327 3.53811,2.28345 3.53812,2.28346 z"
         id="path839" />
    </g>
  </g>
</svg>
